[
  {
    "_id": "5d7e3f18a496fd7a221b2cc7",
    "index": 0,
    "guid": "18826132-be17-4f30-aa15-641ab3fd0e82",
    "isActive": true,
    "balance": "$3,764.43",
    "picture": "http://placehold.it/32x32",
    "age": 36,
    "eyeColor": "blue",
    "name": "Pope Francis",
    "gender": "male",
    "company": "COMVERGES",
    "email": "popefrancis@comverges.com",
    "phone": "+1 (932) 464-3878",
    "address": "722 Foster Avenue, Bendon, North Carolina, 2748",
    "about": "Lorem ut in occaecat ut minim irure ex nisi deserunt ad. Proident deserunt Lorem incididunt voluptate exercitation consequat cillum voluptate laboris. Ad duis est dolor veniam ad elit nostrud commodo velit do incididunt exercitation consectetur consequat. Ad incididunt magna cupidatat Lorem consequat occaecat.\r\n",
    "registered": "2015-08-18T04:15:20 -06:00",
    "latitude": -85.86272,
    "longitude": 42.359828,
    "tags": [
      "et",
      "dolor",
      "commodo",
      "nulla",
      "veniam",
      "veniam",
      "consequat"
    ],
    "friends": [
      {
        "id": 0,
        "name": "Ellen Malone"
      },
      {
        "id": 1,
        "name": "Francisca Hoover"
      },
      {
        "id": 2,
        "name": "Audra Fletcher"
      }
    ],
    "greeting": "Hello, Pope Francis! You have 4 unread messages.",
    "favoriteFruit": "strawberry"
  },
  {
    "_id": "5d7e3f184f4ffbe8af589d59",
    "index": 1,
    "guid": "257b2fde-896d-45cc-a701-60156b0825b3",
    "isActive": true,
    "balance": "$2,005.14",
    "picture": "http://placehold.it/32x32",
    "age": 23,
    "eyeColor": "blue",
    "name": "Irwin Whitehead",
    "gender": "male",
    "company": "NIMON",
    "email": "irwinwhitehead@nimon.com",
    "phone": "+1 (838) 490-3892",
    "address": "416 Conduit Boulevard, Lemoyne, Georgia, 4666",
    "about": "Elit excepteur ex ipsum enim sit minim do excepteur nulla labore duis. Consectetur laboris est incididunt sint. Cupidatat ea officia pariatur voluptate dolore non dolore ad sit reprehenderit est consectetur.\r\n",
    "registered": "2014-05-13T02:16:24 -06:00",
    "latitude": 50.4632,
    "longitude": -70.637909,
    "tags": [
      "anim",
      "exercitation",
      "esse",
      "non",
      "magna",
      "adipisicing",
      "voluptate"
    ],
    "friends": [
      {
        "id": 0,
        "name": "Pennington Compton"
      },
      {
        "id": 1,
        "name": "Ursula Best"
      },
      {
        "id": 2,
        "name": "Candy Rosa"
      }
    ],
    "greeting": "Hello, Irwin Whitehead! You have 7 unread messages.",
    "favoriteFruit": "apple"
  },
  {
    "_id": "5d7e3f1857fa36a93e439c33",
    "index": 2,
    "guid": "9530d8a7-9e39-4f00-b044-268f6aeb6731",
    "isActive": true,
    "balance": "$1,335.84",
    "picture": "http://placehold.it/32x32",
    "age": 40,
    "eyeColor": "blue",
    "name": "Gilbert Hawkins",
    "gender": "male",
    "company": "ORBALIX",
    "email": "gilberthawkins@orbalix.com",
    "phone": "+1 (964) 417-3091",
    "address": "682 Otsego Street, Hanover, Virgin Islands, 1614",
    "about": "Cillum dolore proident elit est aute ad reprehenderit. Non cupidatat ut elit laboris ad amet mollit voluptate sint fugiat et aliqua excepteur do. Elit pariatur in cillum in labore et eiusmod sunt exercitation Lorem. Laboris exercitation culpa veniam occaecat nulla ea laborum sit ullamco nisi. Ad anim aliquip dolore ut veniam dolor ex deserunt cupidatat.\r\n",
    "registered": "2016-10-24T03:33:11 -06:00",
    "latitude": 21.262308,
    "longitude": -85.47925,
    "tags": [
      "dolor",
      "elit",
      "amet",
      "fugiat",
      "eiusmod",
      "qui",
      "mollit"
    ],
    "friends": [
      {
        "id": 0,
        "name": "Rhoda Jones"
      },
      {
        "id": 1,
        "name": "House Beard"
      },
      {
        "id": 2,
        "name": "Mathews Wagner"
      }
    ],
    "greeting": "Hello, Gilbert Hawkins! You have 7 unread messages.",
    "favoriteFruit": "strawberry"
  },
  {
    "_id": "5d7e3f1877096003350862ad",
    "index": 3,
    "guid": "e4f45802-a00c-4228-a6b5-f53a6d70a32a",
    "isActive": true,
    "balance": "$2,902.72",
    "picture": "http://placehold.it/32x32",
    "age": 39,
    "eyeColor": "green",
    "name": "Carole Bishop",
    "gender": "female",
    "company": "PORTICA",
    "email": "carolebishop@portica.com",
    "phone": "+1 (925) 412-2515",
    "address": "105 Rutledge Street, Berwind, Kansas, 9864",
    "about": "Laboris nisi laborum occaecat reprehenderit eiusmod proident consequat. Enim eu aliqua in aliqua reprehenderit nisi est id anim laborum. Pariatur elit pariatur exercitation et elit pariatur occaecat cillum fugiat. Consectetur consectetur cillum fugiat incididunt exercitation amet do deserunt adipisicing laborum. Labore aliquip Lorem officia consectetur non esse proident proident et. Aliquip ullamco laborum adipisicing sit cupidatat in amet ipsum eiusmod sunt do anim ullamco duis.\r\n",
    "registered": "2019-02-27T05:50:53 -06:00",
    "latitude": -77.083157,
    "longitude": 52.768499,
    "tags": [
      "commodo",
      "laboris",
      "non",
      "velit",
      "proident",
      "occaecat",
      "incididunt"
    ],
    "friends": [
      {
        "id": 0,
        "name": "Raquel Franklin"
      },
      {
        "id": 1,
        "name": "Duke Maldonado"
      },
      {
        "id": 2,
        "name": "Sheree Barnett"
      }
    ],
    "greeting": "Hello, Carole Bishop! You have 2 unread messages.",
    "favoriteFruit": "strawberry"
  },
  {
    "_id": "5d7e3f18515e763420e7ebe1",
    "index": 4,
    "guid": "49fd1e10-33ea-4872-979b-87c9c3afe7ae",
    "isActive": true,
    "balance": "$3,143.03",
    "picture": "http://placehold.it/32x32",
    "age": 36,
    "eyeColor": "green",
    "name": "Mcfadden Roth",
    "gender": "male",
    "company": "ONTAGENE",
    "email": "mcfaddenroth@ontagene.com",
    "phone": "+1 (924) 430-2461",
    "address": "179 Bergen Place, Saddlebrooke, Vermont, 7002",
    "about": "Tempor occaecat non ex nostrud. Laboris do incididunt occaecat commodo dolore Lorem in ut irure nisi. Enim consectetur elit laborum labore enim.\r\n",
    "registered": "2017-08-23T07:58:45 -06:00",
    "latitude": -43.538684,
    "longitude": 164.388724,
    "tags": [
      "ex",
      "eiusmod",
      "magna",
      "fugiat",
      "anim",
      "veniam",
      "qui"
    ],
    "friends": [
      {
        "id": 0,
        "name": "Beverly Middleton"
      },
      {
        "id": 1,
        "name": "Harrell Reilly"
      },
      {
        "id": 2,
        "name": "Harmon Ball"
      }
    ],
    "greeting": "Hello, Mcfadden Roth! You have 9 unread messages.",
    "favoriteFruit": "banana"
  },
  {
    "_id": "5d7e3f188a3aca46d24b5a36",
    "index": 5,
    "guid": "dc4ecf09-9e98-4ee0-97ca-0621a8654b70",
    "isActive": true,
    "balance": "$2,718.06",
    "picture": "http://placehold.it/32x32",
    "age": 27,
    "eyeColor": "brown",
    "name": "Kerr Webster",
    "gender": "male",
    "company": "CONFRENZY",
    "email": "kerrwebster@confrenzy.com",
    "phone": "+1 (889) 548-3690",
    "address": "558 Harrison Avenue, Gilgo, Montana, 9830",
    "about": "Ea velit Lorem nulla Lorem sunt in ipsum nisi aute consectetur nisi ullamco tempor. Lorem occaecat ullamco consequat nisi ut ea. Aute nisi irure sit velit exercitation labore eiusmod ea. Occaecat enim ea voluptate Lorem exercitation velit. Do cupidatat duis officia anim ad nulla consectetur eu aliquip. Ad sint dolore exercitation mollit ad tempor veniam magna Lorem elit nostrud.\r\n",
    "registered": "2014-10-20T10:41:59 -06:00",
    "latitude": 65.954237,
    "longitude": 107.32981,
    "tags": [
      "laborum",
      "non",
      "ut",
      "Lorem",
      "exercitation",
      "laborum",
      "ullamco"
    ],
    "friends": [
      {
        "id": 0,
        "name": "Jimmie Wallace"
      },
      {
        "id": 1,
        "name": "Le Wilkinson"
      },
      {
        "id": 2,
        "name": "Booker Gutierrez"
      }
    ],
    "greeting": "Hello, Kerr Webster! You have 6 unread messages.",
    "favoriteFruit": "banana"
  }
]