[
  {
    "_id": "5d7e3f0b9f68b530e5a400b7",
    "index": 0,
    "guid": "beed2e3a-03b2-4dbd-9954-cbaa759d6837",
    "isActive": false,
    "balance": "$2,885.97",
    "picture": "http://placehold.it/32x32",
    "age": 32,
    "eyeColor": "brown",
    "name": "Margery Hayden",
    "gender": "female",
    "company": "EBIDCO",
    "email": "margeryhayden@ebidco.com",
    "phone": "+1 (843) 420-2975",
    "address": "576 Melrose Street, Jacumba, Illinois, 7878",
    "about": "Commodo proident cillum est velit. Occaecat ea in proident adipisicing. Sunt esse adipisicing culpa Lorem eiusmod dolore irure nisi ut eu.\r\n",
    "registered": "2014-10-14T11:21:00 -06:00",
    "latitude": 62.512951,
    "longitude": -101.744973,
    "tags": [
      "officia",
      "occaecat",
      "consequat",
      "duis",
      "nisi",
      "non",
      "laborum"
    ],
    "friends": [
      {
        "id": 0,
        "name": "Stevens Rojas"
      },
      {
        "id": 1,
        "name": "Randall Scott"
      },
      {
        "id": 2,
        "name": "Shanna Fields"
      }
    ],
    "greeting": "Hello, Margery Hayden! You have 10 unread messages.",
    "favoriteFruit": "banana"
  },
  {
    "_id": "5d7e3f0bcb9c9f86daf88e1a",
    "index": 1,
    "guid": "abe31bf0-d0f5-42e6-b86a-3c1ea6de2031",
    "isActive": false,
    "balance": "$2,317.13",
    "picture": "http://placehold.it/32x32",
    "age": 35,
    "eyeColor": "brown",
    "name": "Peters Crosby",
    "gender": "male",
    "company": "EXTRO",
    "email": "peterscrosby@extro.com",
    "phone": "+1 (981) 600-2072",
    "address": "671 Pineapple Street, Loma, Federated States Of Micronesia, 8694",
    "about": "Ad esse irure et proident fugiat dolore culpa elit culpa minim dolor cillum mollit officia. Laboris fugiat magna esse elit ullamco fugiat id et eiusmod. Mollit ad laborum nulla mollit id ex in. Quis proident aute ad incididunt incididunt est officia ad laborum nostrud laboris dolore.\r\n",
    "registered": "2016-06-06T07:56:09 -06:00",
    "latitude": -49.17977,
    "longitude": 45.356096,
    "tags": [
      "ad",
      "nostrud",
      "reprehenderit",
      "commodo",
      "consequat",
      "eiusmod",
      "veniam"
    ],
    "friends": [
      {
        "id": 0,
        "name": "Hooper Blackburn"
      },
      {
        "id": 1,
        "name": "Teresa Daniels"
      },
      {
        "id": 2,
        "name": "Mcconnell Webb"
      }
    ],
    "greeting": "Hello, Peters Crosby! You have 4 unread messages.",
    "favoriteFruit": "banana"
  },
  {
    "_id": "5d7e3f0b9e82c18f221c090a",
    "index": 2,
    "guid": "2c216a3f-5ff4-404b-b3f7-5f1226214a92",
    "isActive": true,
    "balance": "$3,802.34",
    "picture": "http://placehold.it/32x32",
    "age": 22,
    "eyeColor": "green",
    "name": "Coleen Kirkland",
    "gender": "female",
    "company": "TALKOLA",
    "email": "coleenkirkland@talkola.com",
    "phone": "+1 (847) 548-3771",
    "address": "641 Bogart Street, Grazierville, Montana, 2423",
    "about": "Culpa minim magna ut sint laboris quis voluptate anim officia aliqua incididunt minim. Est amet velit in exercitation voluptate duis consectetur in irure sit minim cupidatat cillum. Consectetur exercitation deserunt nostrud incididunt ut labore ipsum anim ullamco nostrud est ad nostrud dolor. Sit sit ad culpa mollit commodo incididunt. Fugiat deserunt ut laboris occaecat esse minim eu. Et et est cupidatat ullamco do.\r\n",
    "registered": "2017-07-01T09:47:19 -06:00",
    "latitude": 65.679951,
    "longitude": 136.639665,
    "tags": [
      "non",
      "tempor",
      "amet",
      "pariatur",
      "duis",
      "sit",
      "proident"
    ],
    "friends": [
      {
        "id": 0,
        "name": "Sullivan Carter"
      },
      {
        "id": 1,
        "name": "Sabrina Salinas"
      },
      {
        "id": 2,
        "name": "Celia Byrd"
      }
    ],
    "greeting": "Hello, Coleen Kirkland! You have 8 unread messages.",
    "favoriteFruit": "banana"
  },
  {
    "_id": "5d7e3f0be79dc34a7f888b57",
    "index": 3,
    "guid": "d73d9c07-c292-49f5-b230-2407bcbba467",
    "isActive": false,
    "balance": "$2,697.77",
    "picture": "http://placehold.it/32x32",
    "age": 27,
    "eyeColor": "brown",
    "name": "Wynn Petty",
    "gender": "male",
    "company": "VERAQ",
    "email": "wynnpetty@veraq.com",
    "phone": "+1 (805) 568-2306",
    "address": "962 Court Street, Rosedale, Oregon, 7645",
    "about": "Dolore enim irure magna cupidatat est laboris nostrud tempor duis. Ea exercitation ea eu nulla non quis excepteur aliquip ad et labore cillum. Voluptate excepteur irure sint est ex ullamco ad dolor deserunt qui nostrud.\r\n",
    "registered": "2014-12-24T09:27:08 -06:00",
    "latitude": -55.574366,
    "longitude": -153.159653,
    "tags": [
      "adipisicing",
      "ex",
      "eiusmod",
      "veniam",
      "ipsum",
      "sunt",
      "culpa"
    ],
    "friends": [
      {
        "id": 0,
        "name": "Holt Mccormick"
      },
      {
        "id": 1,
        "name": "Marshall Carpenter"
      },
      {
        "id": 2,
        "name": "Holden Burch"
      }
    ],
    "greeting": "Hello, Wynn Petty! You have 10 unread messages.",
    "favoriteFruit": "strawberry"
  },
  {
    "_id": "5d7e3f0b5221548fff423e8e",
    "index": 4,
    "guid": "c50fb536-749d-4d2c-a0fc-df54f56e19b9",
    "isActive": false,
    "balance": "$3,890.77",
    "picture": "http://placehold.it/32x32",
    "age": 36,
    "eyeColor": "blue",
    "name": "Veronica Mccarty",
    "gender": "female",
    "company": "FREAKIN",
    "email": "veronicamccarty@freakin.com",
    "phone": "+1 (898) 436-3548",
    "address": "456 Grattan Street, Foscoe, Missouri, 2423",
    "about": "Cillum aliquip velit minim ipsum in est deserunt adipisicing ex est aute in elit culpa. Minim irure veniam commodo ut eiusmod nostrud incididunt commodo esse. Quis sit cupidatat magna pariatur excepteur laboris tempor sunt adipisicing enim aute excepteur culpa. Culpa amet proident nulla incididunt in pariatur adipisicing est cillum ea duis ipsum tempor. Nulla amet reprehenderit do esse nostrud adipisicing non eiusmod nulla quis. Fugiat tempor minim pariatur anim voluptate.\r\n",
    "registered": "2019-06-10T06:46:53 -06:00",
    "latitude": -72.935186,
    "longitude": 106.527349,
    "tags": [
      "nisi",
      "do",
      "mollit",
      "ex",
      "consequat",
      "voluptate",
      "cupidatat"
    ],
    "friends": [
      {
        "id": 0,
        "name": "Marian Kirk"
      },
      {
        "id": 1,
        "name": "Mason Robinson"
      },
      {
        "id": 2,
        "name": "Melody Hampton"
      }
    ],
    "greeting": "Hello, Veronica Mccarty! You have 7 unread messages.",
    "favoriteFruit": "apple"
  },
  {
    "_id": "5d7e3f0b4cdcf5c1e8d23397",
    "index": 5,
    "guid": "43d1a3e5-10e8-42a8-a99d-8ffb7db7ba08",
    "isActive": true,
    "balance": "$2,002.57",
    "picture": "http://placehold.it/32x32",
    "age": 35,
    "eyeColor": "brown",
    "name": "Spence Spence",
    "gender": "male",
    "company": "VOIPA",
    "email": "spencespence@voipa.com",
    "phone": "+1 (896) 542-3292",
    "address": "840 Sumpter Street, Hasty, Indiana, 6266",
    "about": "Velit labore incididunt nostrud fugiat. Id ipsum commodo do ea Lorem. Ex proident voluptate anim ad enim dolor eiusmod velit sit ea. Magna sint laborum commodo dolore. Aute irure mollit do laborum veniam velit eiusmod consectetur sit laborum nostrud veniam elit Lorem.\r\n",
    "registered": "2015-09-27T01:56:35 -06:00",
    "latitude": 83.183121,
    "longitude": 76.678359,
    "tags": [
      "elit",
      "quis",
      "aute",
      "ad",
      "aute",
      "consequat",
      "elit"
    ],
    "friends": [
      {
        "id": 0,
        "name": "Donaldson Cabrera"
      },
      {
        "id": 1,
        "name": "Winters Fleming"
      },
      {
        "id": 2,
        "name": "Yates Nixon"
      }
    ],
    "greeting": "Hello, Spence Spence! You have 10 unread messages.",
    "favoriteFruit": "strawberry"
  },
  {
    "_id": "5d7e3f0ba3430f1f1cf16c70",
    "index": 6,
    "guid": "2568997d-6e17-4531-9c6d-17b1ae7dd343",
    "isActive": false,
    "balance": "$3,859.07",
    "picture": "http://placehold.it/32x32",
    "age": 29,
    "eyeColor": "green",
    "name": "Dale Quinn",
    "gender": "male",
    "company": "BALOOBA",
    "email": "dalequinn@balooba.com",
    "phone": "+1 (947) 479-2771",
    "address": "398 Jardine Place, Wedgewood, Maryland, 3990",
    "about": "Velit officia culpa voluptate consequat sunt amet deserunt. Nisi ipsum incididunt nulla ea Lorem culpa pariatur consectetur officia amet consequat nostrud ullamco labore. Do adipisicing commodo qui eu culpa qui aute deserunt excepteur. Exercitation mollit eiusmod qui aliqua nulla culpa est enim anim non velit ut sunt cillum. Qui esse aute anim consequat cillum magna laboris laboris mollit irure qui eu.\r\n",
    "registered": "2016-09-19T11:05:45 -06:00",
    "latitude": 85.625256,
    "longitude": 90.256134,
    "tags": [
      "magna",
      "dolore",
      "veniam",
      "tempor",
      "proident",
      "laborum",
      "dolore"
    ],
    "friends": [
      {
        "id": 0,
        "name": "Paula Flynn"
      },
      {
        "id": 1,
        "name": "Cline Franco"
      },
      {
        "id": 2,
        "name": "Pickett Tyler"
      }
    ],
    "greeting": "Hello, Dale Quinn! You have 2 unread messages.",
    "favoriteFruit": "apple"
  }
]